---
http_interactions:
- request:
    method: get
    uri: https://api.pexels.com/v1/search?query=denver
    body:
      encoding: US-ASCII
      string: ''
    headers:
      Authorization:
      - 563492ad6f91700001000001ed2971df6b8e485da807b77c84b23f5a
      User-Agent:
      - Faraday v2.2.0
      Accept-Encoding:
      - gzip;q=1.0,deflate;q=0.6,identity;q=0.3
      Accept:
      - "*/*"
  response:
    status:
      code: 200
      message: OK
    headers:
      Date:
      - Sat, 23 Apr 2022 15:09:21 GMT
      Content-Type:
      - application/json; charset=utf-8
      Content-Length:
      - '2263'
      Connection:
      - keep-alive
      Cf-Ray:
      - 70078510c9f4c7a9-DEN
      Cache-Control:
      - max-age=0, private, must-revalidate
      Set-Cookie:
      - __cf_bm=P7g.H6CEixLGQ61ss51WVjPqu12zbIDlfh5dGYxWNrA-1650726123-0-AYVsNInCr2lZZmIsse688fpc1u5iTAlbw5V6pw/Fjs+aBFYoCS+XsXxjkDqNvMicyENr88piOPL6vDKXF+bYwGQ=;
        path=/; expires=Sat, 23-Apr-22 15:32:03 GMT; domain=.pexels.com; HttpOnly;
        Secure; SameSite=None
      - __cf_bm=ngdMyDSMVQ9CAuQEZfVUil3nBrYLmnqgi_m81cweyhI-1650726561-0-Aef74BBbRzf9wM8fCbL6QPgQ/ip0G3xlkaOzg9EIxQ0K7Mru3mVtVKv+dg5IG7AkgPq3/NLYCSg395Wht+iflSc=;
        path=/; expires=Sat, 23-Apr-22 15:39:21 GMT; domain=.pexels.com; HttpOnly;
        Secure; SameSite=None
      Vary:
      - Origin, Accept-Encoding
      Cf-Cache-Status:
      - DYNAMIC
      Alt-Svc:
      - h3=":443"; ma=86400, h3-29=":443"; ma=86400
      Expect-Ct:
      - max-age=604800, report-uri="https://report-uri.cloudflare.com/cdn-cgi/beacon/expect-ct"
      X-Frame-Options:
      - SAMEORIGIN
      X-Ratelimit-Limit:
      - '20000'
      X-Ratelimit-Remaining:
      - '19988'
      X-Ratelimit-Reset:
      - '1653244223'
      X-Request-Id:
      - 00caf5b1-a791-43de-9524-f310f7b307a4
      X-Runtime:
      - '0.121977'
      X-Server:
      - alpaca
      X-Tyk-Cached-Response:
      - '1'
      Server:
      - cloudflare
    body:
      encoding: ASCII-8BIT
      string: '{"page":1,"per_page":15,"photos":[{"id":2706750,"width":6240,"height":4160,"url":"https://www.pexels.com/photo/union-station-building-2706750/","photographer":"Thomas
        Ward","photographer_url":"https://www.pexels.com/@thomasleeward","photographer_id":220769,"avg_color":"#777272","src":{"original":"https://images.pexels.com/photos/2706750/pexels-photo-2706750.jpeg","large2x":"https://images.pexels.com/photos/2706750/pexels-photo-2706750.jpeg?auto=compress\u0026cs=tinysrgb\u0026dpr=2\u0026h=650\u0026w=940","large":"https://images.pexels.com/photos/2706750/pexels-photo-2706750.jpeg?auto=compress\u0026cs=tinysrgb\u0026h=650\u0026w=940","medium":"https://images.pexels.com/photos/2706750/pexels-photo-2706750.jpeg?auto=compress\u0026cs=tinysrgb\u0026h=350","small":"https://images.pexels.com/photos/2706750/pexels-photo-2706750.jpeg?auto=compress\u0026cs=tinysrgb\u0026h=130","portrait":"https://images.pexels.com/photos/2706750/pexels-photo-2706750.jpeg?auto=compress\u0026cs=tinysrgb\u0026fit=crop\u0026h=1200\u0026w=800","landscape":"https://images.pexels.com/photos/2706750/pexels-photo-2706750.jpeg?auto=compress\u0026cs=tinysrgb\u0026fit=crop\u0026h=627\u0026w=1200","tiny":"https://images.pexels.com/photos/2706750/pexels-photo-2706750.jpeg?auto=compress\u0026cs=tinysrgb\u0026dpr=1\u0026fit=crop\u0026h=200\u0026w=280"},"liked":false,"alt":"Union
        Station Building"},{"id":3751010,"width":3712,"height":5568,"url":"https://www.pexels.com/photo/red-and-white-concrete-building-during-night-time-3751010/","photographer":"Colin
        Lloyd","photographer_url":"https://www.pexels.com/@colin-lloyd-2120291","photographer_id":2120291,"avg_color":"#5A4741","src":{"original":"https://images.pexels.com/photos/3751010/pexels-photo-3751010.jpeg","large2x":"https://images.pexels.com/photos/3751010/pexels-photo-3751010.jpeg?auto=compress\u0026cs=tinysrgb\u0026dpr=2\u0026h=650\u0026w=940","large":"https://images.pexels.com/photos/3751010/pexels-photo-3751010.jpeg?auto=compress\u0026cs=tinysrgb\u0026h=650\u0026w=940","medium":"https://images.pexels.com/photos/3751010/pexels-photo-3751010.jpeg?auto=compress\u0026cs=tinysrgb\u0026h=350","small":"https://images.pexels.com/photos/3751010/pexels-photo-3751010.jpeg?auto=compress\u0026cs=tinysrgb\u0026h=130","portrait":"https://images.pexels.com/photos/3751010/pexels-photo-3751010.jpeg?auto=compress\u0026cs=tinysrgb\u0026fit=crop\u0026h=1200\u0026w=800","landscape":"https://images.pexels.com/photos/3751010/pexels-photo-3751010.jpeg?auto=compress\u0026cs=tinysrgb\u0026fit=crop\u0026h=627\u0026w=1200","tiny":"https://images.pexels.com/photos/3751010/pexels-photo-3751010.jpeg?auto=compress\u0026cs=tinysrgb\u0026dpr=1\u0026fit=crop\u0026h=200\u0026w=280"},"liked":false,"alt":"Red
        and White Concrete Building during Night Time"},{"id":2269617,"width":4000,"height":6000,"url":"https://www.pexels.com/photo/concrete-buildings-2269617/","photographer":"Spencer
        Selover","photographer_url":"https://www.pexels.com/@spencer-selover-142259","photographer_id":142259,"avg_color":"#564F4B","src":{"original":"https://images.pexels.com/photos/2269617/pexels-photo-2269617.jpeg","large2x":"https://images.pexels.com/photos/2269617/pexels-photo-2269617.jpeg?auto=compress\u0026cs=tinysrgb\u0026dpr=2\u0026h=650\u0026w=940","large":"https://images.pexels.com/photos/2269617/pexels-photo-2269617.jpeg?auto=compress\u0026cs=tinysrgb\u0026h=650\u0026w=940","medium":"https://images.pexels.com/photos/2269617/pexels-photo-2269617.jpeg?auto=compress\u0026cs=tinysrgb\u0026h=350","small":"https://images.pexels.com/photos/2269617/pexels-photo-2269617.jpeg?auto=compress\u0026cs=tinysrgb\u0026h=130","portrait":"https://images.pexels.com/photos/2269617/pexels-photo-2269617.jpeg?auto=compress\u0026cs=tinysrgb\u0026fit=crop\u0026h=1200\u0026w=800","landscape":"https://images.pexels.com/photos/2269617/pexels-photo-2269617.jpeg?auto=compress\u0026cs=tinysrgb\u0026fit=crop\u0026h=627\u0026w=1200","tiny":"https://images.pexels.com/photos/2269617/pexels-photo-2269617.jpeg?auto=compress\u0026cs=tinysrgb\u0026dpr=1\u0026fit=crop\u0026h=200\u0026w=280"},"liked":false,"alt":"Concrete
        Buildings"},{"id":210374,"width":2199,"height":1210,"url":"https://www.pexels.com/photo/architecture-attractions-building-cheesman-park-210374/","photographer":"Pixabay","photographer_url":"https://www.pexels.com/@pixabay","photographer_id":2659,"avg_color":"#5A7359","src":{"original":"https://images.pexels.com/photos/210374/pexels-photo-210374.jpeg","large2x":"https://images.pexels.com/photos/210374/pexels-photo-210374.jpeg?auto=compress\u0026cs=tinysrgb\u0026dpr=2\u0026h=650\u0026w=940","large":"https://images.pexels.com/photos/210374/pexels-photo-210374.jpeg?auto=compress\u0026cs=tinysrgb\u0026h=650\u0026w=940","medium":"https://images.pexels.com/photos/210374/pexels-photo-210374.jpeg?auto=compress\u0026cs=tinysrgb\u0026h=350","small":"https://images.pexels.com/photos/210374/pexels-photo-210374.jpeg?auto=compress\u0026cs=tinysrgb\u0026h=130","portrait":"https://images.pexels.com/photos/210374/pexels-photo-210374.jpeg?auto=compress\u0026cs=tinysrgb\u0026fit=crop\u0026h=1200\u0026w=800","landscape":"https://images.pexels.com/photos/210374/pexels-photo-210374.jpeg?auto=compress\u0026cs=tinysrgb\u0026fit=crop\u0026h=627\u0026w=1200","tiny":"https://images.pexels.com/photos/210374/pexels-photo-210374.jpeg?auto=compress\u0026cs=tinysrgb\u0026dpr=1\u0026fit=crop\u0026h=200\u0026w=280"},"liked":false,"alt":"White
        Concrete Building Under Blue Cloudy Sky"},{"id":3047493,"width":4669,"height":3159,"url":"https://www.pexels.com/photo/scenic-view-of-the-mountains-with-green-pine-trees-beside-calm-body-of-water-3047493/","photographer":"Joshua
        Woroniecki","photographer_url":"https://www.pexels.com/@joshuaworoniecki","photographer_id":1253228,"avg_color":"#537669","src":{"original":"https://images.pexels.com/photos/3047493/pexels-photo-3047493.jpeg","large2x":"https://images.pexels.com/photos/3047493/pexels-photo-3047493.jpeg?auto=compress\u0026cs=tinysrgb\u0026dpr=2\u0026h=650\u0026w=940","large":"https://images.pexels.com/photos/3047493/pexels-photo-3047493.jpeg?auto=compress\u0026cs=tinysrgb\u0026h=650\u0026w=940","medium":"https://images.pexels.com/photos/3047493/pexels-photo-3047493.jpeg?auto=compress\u0026cs=tinysrgb\u0026h=350","small":"https://images.pexels.com/photos/3047493/pexels-photo-3047493.jpeg?auto=compress\u0026cs=tinysrgb\u0026h=130","portrait":"https://images.pexels.com/photos/3047493/pexels-photo-3047493.jpeg?auto=compress\u0026cs=tinysrgb\u0026fit=crop\u0026h=1200\u0026w=800","landscape":"https://images.pexels.com/photos/3047493/pexels-photo-3047493.jpeg?auto=compress\u0026cs=tinysrgb\u0026fit=crop\u0026h=627\u0026w=1200","tiny":"https://images.pexels.com/photos/3047493/pexels-photo-3047493.jpeg?auto=compress\u0026cs=tinysrgb\u0026dpr=1\u0026fit=crop\u0026h=200\u0026w=280"},"liked":false,"alt":"Scenic
        View Of The Mountains With Green Pine Trees Beside Calm Body of Water"},{"id":3751009,"width":3322,"height":4983,"url":"https://www.pexels.com/photo/brown-concrete-building-during-night-time-3751009/","photographer":"Colin
        Lloyd","photographer_url":"https://www.pexels.com/@colin-lloyd-2120291","photographer_id":2120291,"avg_color":"#606966","src":{"original":"https://images.pexels.com/photos/3751009/pexels-photo-3751009.jpeg","large2x":"https://images.pexels.com/photos/3751009/pexels-photo-3751009.jpeg?auto=compress\u0026cs=tinysrgb\u0026dpr=2\u0026h=650\u0026w=940","large":"https://images.pexels.com/photos/3751009/pexels-photo-3751009.jpeg?auto=compress\u0026cs=tinysrgb\u0026h=650\u0026w=940","medium":"https://images.pexels.com/photos/3751009/pexels-photo-3751009.jpeg?auto=compress\u0026cs=tinysrgb\u0026h=350","small":"https://images.pexels.com/photos/3751009/pexels-photo-3751009.jpeg?auto=compress\u0026cs=tinysrgb\u0026h=130","portrait":"https://images.pexels.com/photos/3751009/pexels-photo-3751009.jpeg?auto=compress\u0026cs=tinysrgb\u0026fit=crop\u0026h=1200\u0026w=800","landscape":"https://images.pexels.com/photos/3751009/pexels-photo-3751009.jpeg?auto=compress\u0026cs=tinysrgb\u0026fit=crop\u0026h=627\u0026w=1200","tiny":"https://images.pexels.com/photos/3751009/pexels-photo-3751009.jpeg?auto=compress\u0026cs=tinysrgb\u0026dpr=1\u0026fit=crop\u0026h=200\u0026w=280"},"liked":false,"alt":"Brown
        Concrete Building during Night Time"},{"id":2269614,"width":4000,"height":6000,"url":"https://www.pexels.com/photo/traffic-lights-2269614/","photographer":"Spencer
        Selover","photographer_url":"https://www.pexels.com/@spencer-selover-142259","photographer_id":142259,"avg_color":"#6D6E6B","src":{"original":"https://images.pexels.com/photos/2269614/pexels-photo-2269614.jpeg","large2x":"https://images.pexels.com/photos/2269614/pexels-photo-2269614.jpeg?auto=compress\u0026cs=tinysrgb\u0026dpr=2\u0026h=650\u0026w=940","large":"https://images.pexels.com/photos/2269614/pexels-photo-2269614.jpeg?auto=compress\u0026cs=tinysrgb\u0026h=650\u0026w=940","medium":"https://images.pexels.com/photos/2269614/pexels-photo-2269614.jpeg?auto=compress\u0026cs=tinysrgb\u0026h=350","small":"https://images.pexels.com/photos/2269614/pexels-photo-2269614.jpeg?auto=compress\u0026cs=tinysrgb\u0026h=130","portrait":"https://images.pexels.com/photos/2269614/pexels-photo-2269614.jpeg?auto=compress\u0026cs=tinysrgb\u0026fit=crop\u0026h=1200\u0026w=800","landscape":"https://images.pexels.com/photos/2269614/pexels-photo-2269614.jpeg?auto=compress\u0026cs=tinysrgb\u0026fit=crop\u0026h=627\u0026w=1200","tiny":"https://images.pexels.com/photos/2269614/pexels-photo-2269614.jpeg?auto=compress\u0026cs=tinysrgb\u0026dpr=1\u0026fit=crop\u0026h=200\u0026w=280"},"liked":false,"alt":"Traffic
        Lights"},{"id":3751008,"width":3712,"height":5568,"url":"https://www.pexels.com/photo/people-walking-on-street-3751008/","photographer":"Colin
        Lloyd","photographer_url":"https://www.pexels.com/@colin-lloyd-2120291","photographer_id":2120291,"avg_color":"#595553","src":{"original":"https://images.pexels.com/photos/3751008/pexels-photo-3751008.jpeg","large2x":"https://images.pexels.com/photos/3751008/pexels-photo-3751008.jpeg?auto=compress\u0026cs=tinysrgb\u0026dpr=2\u0026h=650\u0026w=940","large":"https://images.pexels.com/photos/3751008/pexels-photo-3751008.jpeg?auto=compress\u0026cs=tinysrgb\u0026h=650\u0026w=940","medium":"https://images.pexels.com/photos/3751008/pexels-photo-3751008.jpeg?auto=compress\u0026cs=tinysrgb\u0026h=350","small":"https://images.pexels.com/photos/3751008/pexels-photo-3751008.jpeg?auto=compress\u0026cs=tinysrgb\u0026h=130","portrait":"https://images.pexels.com/photos/3751008/pexels-photo-3751008.jpeg?auto=compress\u0026cs=tinysrgb\u0026fit=crop\u0026h=1200\u0026w=800","landscape":"https://images.pexels.com/photos/3751008/pexels-photo-3751008.jpeg?auto=compress\u0026cs=tinysrgb\u0026fit=crop\u0026h=627\u0026w=1200","tiny":"https://images.pexels.com/photos/3751008/pexels-photo-3751008.jpeg?auto=compress\u0026cs=tinysrgb\u0026dpr=1\u0026fit=crop\u0026h=200\u0026w=280"},"liked":false,"alt":"People
        Walking on Street"},{"id":3751006,"width":5399,"height":8701,"url":"https://www.pexels.com/photo/the-denver-post-office-and-federal-court-house-3751006/","photographer":"Colin
        Lloyd","photographer_url":"https://www.pexels.com/@colin-lloyd-2120291","photographer_id":2120291,"avg_color":"#AAABA7","src":{"original":"https://images.pexels.com/photos/3751006/pexels-photo-3751006.jpeg","large2x":"https://images.pexels.com/photos/3751006/pexels-photo-3751006.jpeg?auto=compress\u0026cs=tinysrgb\u0026dpr=2\u0026h=650\u0026w=940","large":"https://images.pexels.com/photos/3751006/pexels-photo-3751006.jpeg?auto=compress\u0026cs=tinysrgb\u0026h=650\u0026w=940","medium":"https://images.pexels.com/photos/3751006/pexels-photo-3751006.jpeg?auto=compress\u0026cs=tinysrgb\u0026h=350","small":"https://images.pexels.com/photos/3751006/pexels-photo-3751006.jpeg?auto=compress\u0026cs=tinysrgb\u0026h=130","portrait":"https://images.pexels.com/photos/3751006/pexels-photo-3751006.jpeg?auto=compress\u0026cs=tinysrgb\u0026fit=crop\u0026h=1200\u0026w=800","landscape":"https://images.pexels.com/photos/3751006/pexels-photo-3751006.jpeg?auto=compress\u0026cs=tinysrgb\u0026fit=crop\u0026h=627\u0026w=1200","tiny":"https://images.pexels.com/photos/3751006/pexels-photo-3751006.jpeg?auto=compress\u0026cs=tinysrgb\u0026dpr=1\u0026fit=crop\u0026h=200\u0026w=280"},"liked":false,"alt":"The
        Denver Post Office and Federal Court House"},{"id":2422861,"width":3448,"height":4592,"url":"https://www.pexels.com/photo/curtain-wall-high-rise-building-beside-transmission-tower-2422861/","photographer":"Aidan
        Roof","photographer_url":"https://www.pexels.com/@rozegold","photographer_id":1271136,"avg_color":"#989E9E","src":{"original":"https://images.pexels.com/photos/2422861/pexels-photo-2422861.png","large2x":"https://images.pexels.com/photos/2422861/pexels-photo-2422861.png?auto=compress\u0026cs=tinysrgb\u0026dpr=2\u0026h=650\u0026w=940","large":"https://images.pexels.com/photos/2422861/pexels-photo-2422861.png?auto=compress\u0026cs=tinysrgb\u0026h=650\u0026w=940","medium":"https://images.pexels.com/photos/2422861/pexels-photo-2422861.png?auto=compress\u0026cs=tinysrgb\u0026h=350","small":"https://images.pexels.com/photos/2422861/pexels-photo-2422861.png?auto=compress\u0026cs=tinysrgb\u0026h=130","portrait":"https://images.pexels.com/photos/2422861/pexels-photo-2422861.png?auto=compress\u0026cs=tinysrgb\u0026fit=crop\u0026h=1200\u0026w=800","landscape":"https://images.pexels.com/photos/2422861/pexels-photo-2422861.png?auto=compress\u0026cs=tinysrgb\u0026fit=crop\u0026h=627\u0026w=1200","tiny":"https://images.pexels.com/photos/2422861/pexels-photo-2422861.png?auto=compress\u0026cs=tinysrgb\u0026dpr=1\u0026fit=crop\u0026h=200\u0026w=280"},"liked":false,"alt":"Curtain
        Wall High-rise Building Beside Transmission Tower"},{"id":2910299,"width":3448,"height":4592,"url":"https://www.pexels.com/photo/man-leaning-on-wall-2910299/","photographer":"Aidan
        Roof","photographer_url":"https://www.pexels.com/@rozegold","photographer_id":1271136,"avg_color":"#B2A9AD","src":{"original":"https://images.pexels.com/photos/2910299/pexels-photo-2910299.jpeg","large2x":"https://images.pexels.com/photos/2910299/pexels-photo-2910299.jpeg?auto=compress\u0026cs=tinysrgb\u0026dpr=2\u0026h=650\u0026w=940","large":"https://images.pexels.com/photos/2910299/pexels-photo-2910299.jpeg?auto=compress\u0026cs=tinysrgb\u0026h=650\u0026w=940","medium":"https://images.pexels.com/photos/2910299/pexels-photo-2910299.jpeg?auto=compress\u0026cs=tinysrgb\u0026h=350","small":"https://images.pexels.com/photos/2910299/pexels-photo-2910299.jpeg?auto=compress\u0026cs=tinysrgb\u0026h=130","portrait":"https://images.pexels.com/photos/2910299/pexels-photo-2910299.jpeg?auto=compress\u0026cs=tinysrgb\u0026fit=crop\u0026h=1200\u0026w=800","landscape":"https://images.pexels.com/photos/2910299/pexels-photo-2910299.jpeg?auto=compress\u0026cs=tinysrgb\u0026fit=crop\u0026h=627\u0026w=1200","tiny":"https://images.pexels.com/photos/2910299/pexels-photo-2910299.jpeg?auto=compress\u0026cs=tinysrgb\u0026dpr=1\u0026fit=crop\u0026h=200\u0026w=280"},"liked":false,"alt":"Man
        Leaning On Wall"},{"id":2500159,"width":3448,"height":4592,"url":"https://www.pexels.com/photo/photo-of-man-in-hoodie-sitting-on-concrete-slab-in-view-of-high-rise-building-under-sky-2500159/","photographer":"Aidan
        Roof","photographer_url":"https://www.pexels.com/@rozegold","photographer_id":1271136,"avg_color":"#63585D","src":{"original":"https://images.pexels.com/photos/2500159/pexels-photo-2500159.png","large2x":"https://images.pexels.com/photos/2500159/pexels-photo-2500159.png?auto=compress\u0026cs=tinysrgb\u0026dpr=2\u0026h=650\u0026w=940","large":"https://images.pexels.com/photos/2500159/pexels-photo-2500159.png?auto=compress\u0026cs=tinysrgb\u0026h=650\u0026w=940","medium":"https://images.pexels.com/photos/2500159/pexels-photo-2500159.png?auto=compress\u0026cs=tinysrgb\u0026h=350","small":"https://images.pexels.com/photos/2500159/pexels-photo-2500159.png?auto=compress\u0026cs=tinysrgb\u0026h=130","portrait":"https://images.pexels.com/photos/2500159/pexels-photo-2500159.png?auto=compress\u0026cs=tinysrgb\u0026fit=crop\u0026h=1200\u0026w=800","landscape":"https://images.pexels.com/photos/2500159/pexels-photo-2500159.png?auto=compress\u0026cs=tinysrgb\u0026fit=crop\u0026h=627\u0026w=1200","tiny":"https://images.pexels.com/photos/2500159/pexels-photo-2500159.png?auto=compress\u0026cs=tinysrgb\u0026dpr=1\u0026fit=crop\u0026h=200\u0026w=280"},"liked":false,"alt":"Photo
        of Man in Hoodie Sitting on Concrete Slab in View of  High-rise Building Under
        Sky"},{"id":4050390,"width":3070,"height":4605,"url":"https://www.pexels.com/photo/an-empty-street-under-cloudy-sky-4050390/","photographer":"Colin
        Lloyd","photographer_url":"https://www.pexels.com/@colin-lloyd-2120291","photographer_id":2120291,"avg_color":"#6D6965","src":{"original":"https://images.pexels.com/photos/4050390/pexels-photo-4050390.jpeg","large2x":"https://images.pexels.com/photos/4050390/pexels-photo-4050390.jpeg?auto=compress\u0026cs=tinysrgb\u0026dpr=2\u0026h=650\u0026w=940","large":"https://images.pexels.com/photos/4050390/pexels-photo-4050390.jpeg?auto=compress\u0026cs=tinysrgb\u0026h=650\u0026w=940","medium":"https://images.pexels.com/photos/4050390/pexels-photo-4050390.jpeg?auto=compress\u0026cs=tinysrgb\u0026h=350","small":"https://images.pexels.com/photos/4050390/pexels-photo-4050390.jpeg?auto=compress\u0026cs=tinysrgb\u0026h=130","portrait":"https://images.pexels.com/photos/4050390/pexels-photo-4050390.jpeg?auto=compress\u0026cs=tinysrgb\u0026fit=crop\u0026h=1200\u0026w=800","landscape":"https://images.pexels.com/photos/4050390/pexels-photo-4050390.jpeg?auto=compress\u0026cs=tinysrgb\u0026fit=crop\u0026h=627\u0026w=1200","tiny":"https://images.pexels.com/photos/4050390/pexels-photo-4050390.jpeg?auto=compress\u0026cs=tinysrgb\u0026dpr=1\u0026fit=crop\u0026h=200\u0026w=280"},"liked":false,"alt":"An
        Empty Street Under Cloudy Sky"},{"id":4050386,"width":3245,"height":4671,"url":"https://www.pexels.com/photo/red-and-brown-train-seats-4050386/","photographer":"Colin
        Lloyd","photographer_url":"https://www.pexels.com/@colin-lloyd-2120291","photographer_id":2120291,"avg_color":"#332520","src":{"original":"https://images.pexels.com/photos/4050386/pexels-photo-4050386.jpeg","large2x":"https://images.pexels.com/photos/4050386/pexels-photo-4050386.jpeg?auto=compress\u0026cs=tinysrgb\u0026dpr=2\u0026h=650\u0026w=940","large":"https://images.pexels.com/photos/4050386/pexels-photo-4050386.jpeg?auto=compress\u0026cs=tinysrgb\u0026h=650\u0026w=940","medium":"https://images.pexels.com/photos/4050386/pexels-photo-4050386.jpeg?auto=compress\u0026cs=tinysrgb\u0026h=350","small":"https://images.pexels.com/photos/4050386/pexels-photo-4050386.jpeg?auto=compress\u0026cs=tinysrgb\u0026h=130","portrait":"https://images.pexels.com/photos/4050386/pexels-photo-4050386.jpeg?auto=compress\u0026cs=tinysrgb\u0026fit=crop\u0026h=1200\u0026w=800","landscape":"https://images.pexels.com/photos/4050386/pexels-photo-4050386.jpeg?auto=compress\u0026cs=tinysrgb\u0026fit=crop\u0026h=627\u0026w=1200","tiny":"https://images.pexels.com/photos/4050386/pexels-photo-4050386.jpeg?auto=compress\u0026cs=tinysrgb\u0026dpr=1\u0026fit=crop\u0026h=200\u0026w=280"},"liked":false,"alt":"Red
        and Brown Train Seats"},{"id":4050383,"width":3572,"height":5358,"url":"https://www.pexels.com/photo/low-angle-shot-of-leading-lines-across-the-denver-union-station-4050383/","photographer":"Colin
        Lloyd","photographer_url":"https://www.pexels.com/@colin-lloyd-2120291","photographer_id":2120291,"avg_color":"#4F4842","src":{"original":"https://images.pexels.com/photos/4050383/pexels-photo-4050383.jpeg","large2x":"https://images.pexels.com/photos/4050383/pexels-photo-4050383.jpeg?auto=compress\u0026cs=tinysrgb\u0026dpr=2\u0026h=650\u0026w=940","large":"https://images.pexels.com/photos/4050383/pexels-photo-4050383.jpeg?auto=compress\u0026cs=tinysrgb\u0026h=650\u0026w=940","medium":"https://images.pexels.com/photos/4050383/pexels-photo-4050383.jpeg?auto=compress\u0026cs=tinysrgb\u0026h=350","small":"https://images.pexels.com/photos/4050383/pexels-photo-4050383.jpeg?auto=compress\u0026cs=tinysrgb\u0026h=130","portrait":"https://images.pexels.com/photos/4050383/pexels-photo-4050383.jpeg?auto=compress\u0026cs=tinysrgb\u0026fit=crop\u0026h=1200\u0026w=800","landscape":"https://images.pexels.com/photos/4050383/pexels-photo-4050383.jpeg?auto=compress\u0026cs=tinysrgb\u0026fit=crop\u0026h=627\u0026w=1200","tiny":"https://images.pexels.com/photos/4050383/pexels-photo-4050383.jpeg?auto=compress\u0026cs=tinysrgb\u0026dpr=1\u0026fit=crop\u0026h=200\u0026w=280"},"liked":false,"alt":"Low-Angle
        Shot of Leading Lines Across the Denver Union Station"}],"total_results":72,"next_page":"https://api.pexels.com/v1/search/?page=2\u0026per_page=15\u0026query=denver"}'
  recorded_at: Sat, 23 Apr 2022 15:09:21 GMT
recorded_with: VCR 6.1.0
